<svg width="24" height="25" viewBox="0 0 24 25" fill="none" xmlns="http://www.w3.org/2000/svg">
<path fill-rule="evenodd" clip-rule="evenodd" d="M6.92857 20.1788C5.7494 19.106 5 17.513 5 15.4171C5 14.7169 5.20083 13.8649 5.55823 12.9149C5.91356 11.9705 6.41226 10.9586 6.98149 9.94698C8.12001 7.92372 9.52088 5.93641 10.5612 4.54589C11.1124 3.80911 12.1733 3.8091 12.7245 4.54589C13.7648 5.93641 15.1657 7.92372 16.3042 9.94698C16.8735 10.9586 17.3722 11.9705 17.7275 12.9149C18.0849 13.8649 18.2857 14.7169 18.2857 15.4171C18.2857 17.513 17.5363 19.106 16.3571 20.1788C15.1715 21.2575 13.5127 21.8447 11.6429 21.8447C9.77306 21.8447 8.11418 21.2575 6.92857 20.1788ZM6.25562 20.9185C7.65522 22.1918 9.56776 22.8447 11.6429 22.8447C13.718 22.8447 15.6305 22.1918 17.0301 20.9185C18.4361 19.6393 19.2857 17.7685 19.2857 15.4171C19.2857 14.5456 19.0405 13.565 18.6634 12.5628C18.2843 11.5551 17.7601 10.4952 17.1757 9.45658C16.0069 7.37954 14.5774 5.35319 13.5252 3.94684C12.5741 2.67546 10.7117 2.67546 9.76048 3.94684C8.70833 5.35319 7.27878 7.37954 6.11 9.45658C5.52558 10.4952 5.00141 11.5551 4.62228 12.5628C4.24522 13.565 4 14.5456 4 15.4171C4 17.7685 4.84958 19.6393 6.25562 20.9185Z" fill="#101013"/>
<path fill-rule="evenodd" clip-rule="evenodd" d="M14.9525 16.154C14.9525 17.7188 13.6839 18.9873 12.1191 18.9873V19.9873C14.2362 19.9873 15.9525 18.2711 15.9525 16.154H14.9525Z" fill="#101013"/>
</svg>
